package com.acme.insurance.policyquote;

rule "RiskyAdults"

    when
        //conditions
        driver : Driver(age > 24, numberOfAccidents >= 1 || numberOfTickets >=2)
        policy : Policy(price == null, policyType == "AUTO")
    then
        //actions
        modify(policy) {setPrice(300)};
        System.out.println("fired rule " + kcontext.getRule().getName());

end

