package com.acme.insurance.policyquote; // <1>

//list any import classes here.
import com.acme.insurance.policyquote.Driver // <2>
import com.acme.insurance.policyquote.Policy

rule "SafeYouths" // <3>

    when // <4>
        //conditions
        driver : Driver(age >= 18 && < 25, numberOfAccidents < 1, numberOfTickets <= 1)
        policy : Policy(price == null, policyType == "AUTO")
    then // <5>
        //actions
        modify(policy) {setPrice(450)};
        System.out.println("fired rule " + kcontext.getRule().getName());

end
